Project 01/Project 1/Veilog Circuit 4.vcd
$date
	Fri Nov 10 23:44:32 2017
$end
$version
	GTKWave Analyzer v3.3.71 (w)1999-2016 BSI
$end
$timescale
	1s
$end
$scope module main $end
$var wire 1 " A[0] $end
$var wire 1 # B[0] $end
$var wire 1 $ C[0] $end
$var wire 1 % D[0] $end
$var wire 1 & E[0] $end
$var wire 1 ' F[0] $end
$upscope $end
$enddefinitions $end
$dumpvars
#0
0&
0"
1'
0%
0$
0#
#100
0'
1&
#200
0&
1'
1%
#300
1&
0'
#400
1'
0%
0&
1$
#500
0'
1&
#600
0&
1%
#700
1&
#800
0&
0$
1#
0%
1'
#900
0'
1&
#1000
0&
1'
1%
#1100
1&
0'
#1200
1'
0%
1$
0&
#1300
1&
0'
#1400
0&
1%
#1500
1&
#1600
0&
0%
1'
1"
0$
0#
#1700
0'
1&
#1800
0&
1'
1%
#1900
0'
1&
#2000
0&
1'
0%
1$
#2100
0'
1&
#2200
0&
1%
#2300
1&
#2400
0&
1#
0$
0%
#2500
1&
#2600
0&
1%
#2700
1&
#2800
0&
0%
1$
#2900
1&
#3000
0&
1%
#3100
1&
